[
{
  "model": "proplan.tracker",
  "pk": 1,
  "fields": {
    "name": "особенность",
    "description": "Особенности проекта, определяющие его развитие и внешний вид.",
    "status": 1,
    "is_abs": false
  }
},
{
  "model": "proplan.tracker",
  "pk": 2,
  "fields": {
    "name": "оптимизация",
    "description": "Оптимизация, обновление библиотек, сторонних систем или сервисов.",
    "status": 2,
    "is_abs": false
  }
},
{
  "model": "proplan.tracker",
  "pk": 3,
  "fields": {
    "name": "ошибка",
    "description": "Выявленные ошибки в работе проекта.",
    "status": 3,
    "is_abs": true
  }
}
]
